{
  "total": "14637",
  "page": 1,
  "pages": 732,
  "tv_shows": [
    {
      "id": 35624,
      "name": "The Flash",
      "permalink": "the-flash",
      "start_date": "2020-2-01",
      "end_date": "1",
      "country": "US",
      "network": "The CW",
      "status": "Running",
      "image_thumbnail_path": "https://static.episodate.com/images/tv-show/thumbnail/35624.jpg"
    },
    {
      "id": 23455,
      "name": "Game of Thrones",
      "permalink": "game-of-thrones",
      "start_date": "2020-2-01",
      "end_date": "1",
      "country": "US",
      "network": "HBO",
      "status": "Ended",
      "image_thumbnail_path": "https://static.episodate.com/images/tv-show/thumbnail/23455.jpg"
    },
    {
      "id": 29560,
      "name": "Arrow",
      "permalink": "arrow",
      "start_date": "2012-10-10",
      "end_date": "2",
      "country": "US",
      "network": "The CW",
      "status": "Running",
      "image_thumbnail_path": "https://static.episodate.com/images/tv-show/thumbnail/29560.jpg"
    },
    {
      "id": 43234,
      "name": "Supergirl",
      "permalink": "supergirl",
      "start_date": "2020-2-01",
      "end_date": "12",
      "country": "US",
      "network": "The CW",
      "status": "Running",
      "image_thumbnail_path": "https://static.episodate.com/images/tv-show/thumbnail/43234.jpg"
    },
    {
      "id": 43467,
      "name": "Lucifer",
      "permalink": "lucifer",
      "start_date": "2020-2-01",
      "end_date": "1",
      "country": "US",
      "network": "Netflix",
      "status": "Running",
      "image_thumbnail_path": "https://static.episodate.com/images/tv-show/thumbnail/43467.com"
    },
    {
      "id": 46692,
      "name": "DC's Legends of Tomorrow",
      "permalink": "dcs-legends-of-tomorrow",
      "start_date": "2020-2-01",
      "end_date": "1",
      "country": "US",
      "network": "BBC One",
      "status": "Running",
      "image_thumbnail_path": "https://static.episodate.com/images/tv-show/thumbnail/46692.jpg"
    },
    {
      "id": 24010,
      "name": "The Walking Dead",
      "permalink": "the-walking-dead",
      "start_date": "2020-2-02",
      "end_date": "2",
      "country": "US",
      "network": "BBC One",
      "status": "Running",
      "image_thumbnail_path": "https://static.episodate.com/images/tv-show/thumbnail/24010.jpg"
    },
    {
      "id": 47145,
      "name": "Dragon Ball Super",
      "permalink": "dragon-ball-super",
      "start_date": "2020-2-02",
      "end_date": "2",
      "country": "JP",
      "network": "HBO",
      "status": "Ended",
      "image_thumbnail_path": "https://static.episodate.com/images/tv-show/thumbnail/47145."
    },
    {
      "id": 46778,
      "name": "Stranger Things",
      "permalink": "montauk",
      "start_date": "2020-2-02",
      "end_date": "12",
      "country": "US",
      "network": "Netflix",
      "status": "Running",
      "image_thumbnail_path": "https://static.episodate.com/images/tv-show/thumbnail/46778.jpg"
    },
    {
      "id": 33514,
      "name": "The 100",
      "permalink": "the-100",
      "start_date": "2020-2-02",
      "end_date": "2",
      "country": "US",
      "network": "CBS",
      "status": "Running",
      "image_thumbnail_path": "https://static.episodate.com/images/tv-show/thumbnail/33514.jpg"
    },
    {
      "id": 22410,
      "name": "Sherlock",
      "permalink": "sherlock",
      "start_date": "2020-2-02",
      "end_date": "12",
      "country": "UK",
      "network": "BBC One",
      "status": "To Be Determined",
      "image_thumbnail_path": "https://static.episodate.com/images/tv-show/thumbnail/22410.jpg"
    },
    {
      "id": 5348,
      "name": "Supernatural",
      "permalink": "supernatural",
      "start_date": "2020-2-02",
      "end_date": "1",
      "country": "US",
      "network": "CBS",
      "status": "Running",
      "image_thumbnail_path": "https://static.episodate.com/images/tv-show/thumbnail/5348.jpg"
    },
    {
      "id": 8362,
      "name": "The Big Bang Theory",
      "permalink": "the-big-bang-theory",
      "start_date": "2020-2-01",
      "end_date": "12",
      "country": "US",
      "network": "CBS",
      "status": "Ended",
      "image_thumbnail_path": "https://static.episodate.com/images/tv-show/thumbnail/8362.jpg"
    },
    {
      "id": 31452,
      "name": "Marvel's Agents of S.H.I.E.L.D.",
      "permalink": "marvel-s-agents-of-s-h-i-e-l-d",
      "start_date": "2020-2-01",
      "end_date": null,
      "country": "US",
      "network": "ABC",
      "status": "Running",
      "image_thumbnail_path": "https://static.episodate.com/images/tv-show/thumbnail/31452.jpg"
    },
    {
      "id": 37444,
      "name": "Marvel's Daredevil",
      "permalink": "daredevil",
      "start_date": "2020-2-01",
      "end_date": "2",
      "country": "US",
      "network": "Netflix",
      "status": "Ended",
      "image_thumbnail_path": "https://static.episodate.com/images/tv-show/thumbnail/37444.jpg"
    },
    {
      "id": 52439,
      "name": "Boku no Hero Academia",
      "permalink": "boku-no-hero-academia",
      "start_date": "2020-2-01",
      "end_date": "1",
      "country": "JP",
      "network": "MBS",
      "status": "Running",
      "image_thumbnail_path": "https://static.episodate.com/images/tv-show/thumbnail/52439.jpg"
    },
    {
      "id": 29671,
      "name": "Gotham",
      "permalink": "gotham",
      "start_date": "2020-2-01",
      "end_date": "12",
      "country": "US",
      "network": "FOX",
      "status": "Ended",
      "image_thumbnail_path": "https://static.episodate.com/images/tv-show/thumbnail/29671.png"
    },
    {
      "id": 29977,
      "name": "Vikings",
      "permalink": "vikings",
      "start_date": "2020-2-01",
      "end_date": "2",
      "country": "CA",
      "network": "FOX",
      "status": "Running",
      "image_thumbnail_path": "https://static.episodate.com/images/tv-show/thumbnail/29977.jpg"
    },
    {
      "id": 49269,
      "name": "Miraculous LadyBug",
      "permalink": "miraculous-ladybug",
      "start_date": "2020-2-02",
      "end_date": "1",
      "country": "FR",
      "network": "FOX",
      "status": "Running",
      "image_thumbnail_path": "https://static.episodate.com/images/tv-show/thumbnail/49269.jpg"
    },
    {
      "id": 36210,
      "name": "Westworld",
      "permalink": "westworld",
      "start_date": "2020-2-02",
      "end_date": "12",
      "country": "US",
      "network": "HBO",
      "status": "Running",
      "image_thumbnail_path": "https://static.episodate.com/images/tv-show/thumbnail/36210.jpg"
    }
  ]
}
